{
    "type": "service_account",
    "project_id": "project-ch465517080",
    "private_key_id": "09cd609630882933a81c96db1e080ee41463497d",
    "private_key": "-----BEGIN PRIVATE KEY-----\nMIIEvgIBADANBgkqhkiG9w0BAQEFAASCBKgwggSkAgEAAoIBAQDiOgJF66ZTD8tw\ngKjcoE6arAPekAb4JMLhr82F9FXbpIZBRUKr/hx8jouOFH/uDaHsO2543Be6fszV\nntfq5K4+0hinp9dTO513gq2VVhbQ4GZ/fg/kgeDYMY5QCd6sAoHiLWp2O6ItviRj\nBYoqK7vxdNyBQV/q8AKwxY79/cCio6VeLP010w7fxKq03l2TRKy7JMFyWtcl1DM8\nzx8nqrSTyinAGpem+LF4kFf2dP+TPoN5QZcX+wIdSIwf11wr/bjlN3/c5/JSzGOr\nXTAD/1b91Vxz01KsgnjfJM0h1DUqOV8MeLUjDQ6/6/1FigRnjskQ4USd6Kz3F8Y+\neFV7h0TrAgMBAAECggEAFfGUiN27y3DLxgTk3Em8dipbUbpcwrMmKCgaYnT54w1J\nbIlgVziV4Mse5FA+vIOcAkMdiyGmN5PXIJ2AyisWb8eHVrPkIhG1S4NkfQjVu7sY\nliNPPVYPzki4SjE65Sp1GNBY9FECgTdhZi2CYmbNmzU/slX6DNrtF+KB5Uc46U2R\noTG3L6GaD9FXIgv/QiyedDejLn6AmSEoFuUWMlZWC0ZacYstc1FC3SMkwwmKZh8a\nOi8g9Uy+jTw0gmSagniEiaLeT2hYqd4GDhSh1pEuvyXZ/sDx30vxqINd4MGfUBn6\nLE0F6YbcqzgeRlm+y4VRI7yn+Am2r2REuFgUscStQQKBgQD7HzHtWm9ziCm42v6Q\n0JuHDvsBixAS8GCQowYZIZmqT8G+285EyHyT4EelLwpdkazU9wOLnVdX4vNYU+ey\ni517Lz415nYo4IV0QmP8IwcCPFy1cu+zsTMCnroZHShOaNHN/XslC9GSk8gczTeG\nhylOb2Dtum46RZmv5fMKBnUFoQKBgQDmnwMZyjO8ykeWLf6DlPVk8bTonJpWXZIx\nE29/lV45MlaNxS8rBYTEN+qMwZr67+kOBN2hoXjdAocRTQoA48mrR+Xhcw4x5k8n\nTSi5pkuEdotAaPNhwrzWrmUMsGfCw8TSfK36yR3WiUtnE1z0yOoF7LHYAiMScUNJ\nqoUC5VSnCwKBgCbwNVuqdDGj4WRKgMKPti4BAqbAm2N0ZmTHAoEPFraz20Tu7FL6\nC2calcFlQ+QyXGxBSQlzAkIcbMM7b2feAjNBphHRhGzeM5NNYBeOjt2n4nA4PDbO\nuSwk1JJkVQWjdzTLozahWIOz6omcwIlZl+wTlSIHkGP0utnte/wH+ElBAoGBANLl\nv1QqUT3oTabM0N9LrU1urF28OHeagkJW37PwyIXNvtFO7V+OYGeAKwIlWrD4DExB\nrtxMadbSpOnxZaCCrr3vtg2Bxg1j7CaorQF5Tb4JGjcAwvE3wLEiMk50U68MkEVc\nt02L9blnPIk6b9t6kGhymABNk/0djscjJRgM2GkZAoGBAMR6zI+JpnanD2fRyww2\nTuDI/rD1pdPFRiDpTw1u/e3SnR40iWrUvrdObcMvPaxwUsDdcuJo6Hc5bs0mbvaV\nbsTF7jWVlSI3wMoGokuR6xjhgmfkudQHt9yEfvuJC0EZWq+YPeMK2v/yQvHrpVst\n+4U7+MRTXCw26vS4P5fhRqYg\n-----END PRIVATE KEY-----\n",
    "client_email": "firebase-adminsdk-lkpf9@project-ch465517080.iam.gserviceaccount.com",
    "client_id": "100883625852664814426",
    "auth_uri": "https://accounts.google.com/o/oauth2/auth",
    "token_uri": "https://oauth2.googleapis.com/token",
    "auth_provider_x509_cert_url": "https://www.googleapis.com/oauth2/v1/certs",
    "client_x509_cert_url": "https://www.googleapis.com/robot/v1/metadata/x509/firebase-adminsdk-lkpf9%40project-ch465517080.iam.gserviceaccount.com"
  }
